<svg viewBox="0 0 122 92" version="1.1" xmlns="http://www.w3.org/2000/svg">
  <path
     id="klimasofa-back"
     style="fill:#96234e;fill-rule:nonzero"
     d="m 60.845,0.35 c -13.9,0 -25.6,9.5 -29,22.3 h -12.6 c -3.7,0 -6.7,3 -6.7,6.8 v 10.8 c 7.4,0.4 13.5,6.6 13.5,14.2 v 3.4 h 69.7 v -3.4 c 0,-7.8 5.9,-14.1 13.9,-14.2 v -10.8 c 0,-3.8 -3,-6.8 -7,-6.8 h -12.7 c -3.4,-12.8 -15.1,-22.3 -29.1,-22.3 z" />
  <path
     id="klimasofa-seat"
     style="fill:#96234e;fill-rule:nonzero"
     d="m 109.645,42.95 c 7,0 12,5.2 12,11.5 v 16.9 c 0,6.2 -5,11.3 -11,11.5 -1,0 -2,0 -3,0 v 7.4 c 0,0.8 0,1.4 -1,1.4 h -7 c -1,0 -1,-0.6 -1,-1.4 v -7.4 h -75.3 v 7.4 c 0,0.8 -0.6,1.4 -1.4,1.4 h -6.7 c -0.8,0 -1.4,-0.6 -1.4,-1.4 v -7.4 h -2 c -6.35,0 -11.49,-5.1 -11.49,-11.5 v -16.9 c 0,-6.3 5.14,-11.5 11.49,-11.5 6.3,0 11.5,5.2 11.5,11.5 v 6.1 h 75.3 v -6.1 c 0,-6.3 5,-11.5 11,-11.5 z" />
  <path
     id="klimasofa-heart"
     style="fill:#ffffff;fill-rule:nonzero"
     d="m 55.545,65.55 c -0.8,0.3 -1.5,0.9 -1.9,1.6 -0.3,0.8 -0.4,1.6 -0.3,2.4 0.1,0.8 0.5,1.5 0.9,2.2 0.9,1.3 2.2,2.3 3.5,3.3 0.7,0.7 1.8,1.6 3.2,2.7 1.4,-1.1 2.5,-2 3.3,-2.7 1.2,-1 2.5,-2 3.4,-3.3 0.5,-0.7 0.8,-1.4 1,-2.2 0.1,-0.8 0,-1.6 -0.4,-2.4 -0.4,-0.7 -1.1,-1.3 -1.9,-1.6 -0.8,-0.3 -1.7,-0.4 -2.6,-0.1 -0.6,0.2 -1.2,0.6 -1.7,1.1 -0.5,0.5 -0.9,1.1 -1.1,1.8 -0.1,-0.7 -0.6,-1.3 -1,-1.8 -0.5,-0.5 -1.1,-0.9 -1.8,-1.1 -0.9,-0.3 -1.8,-0.1 -2.6,0.1 z" />
  <circle id="globe-bg" cx="60.845001" cy="30.450001" r="27.4" style="fill:#ffffff;fill-rule:nonzero" />
  <path
     id="globe-continents-1"
     style="fill:#137b5a;fill-rule:nonzero"
     d="m 59.845,4.43 c 0,0.11 0.1,0.21 0.1,0.24 0.1,0.06 -0.1,0.28 -0.2,0.41 l -0.1,0.14 c -0.1,0.09 -0.2,0.19 -0.1,0.17 l 0.2,-0.05 c 0.2,-0.06 0.5,-0.17 0.8,-0.24 l 0.1,-0.03 c 0.4,-0.08 0.9,-0.24 1.5,-0.15 0.4,0.05 0.5,-0.23 0.6,-0.45 11.3,0.81 20.6,8.78 23.3,19.38 -0.1,-0.4 -0.5,-1 -0.7,-1.3 l -0.5,-0.7 c -0.3,-0.6 -0.7,-1.2 -0.8,-1.3 0,-0.1 -1.5,-0.5 -1.8,-0.7 l -0.2,-0.1 c -0.4,-0.2 -1.1,-0.6 -1.1,-0.7 0,-0.2 -1.2,-0.1 -1.6,-0.7 l -0.6,-0.9 c -0.3,-0.5 -0.7,-0.9 -0.8,-0.9 -0.2,0.1 -0.1,1.3 0.3,1.6 0.5,0.4 0.6,1 0.8,1.2 0.3,0.3 0.6,0.5 1,0.2 l 0.4,-0.2 c 0.2,-0.1 0.3,-0.1 0.4,0 l 0.1,0.1 c 0.1,0.3 1.5,1.4 1.5,2 0,0.6 -0.6,1.6 -0.8,1.8 -0.3,0.3 -2.3,1.1 -2.9,1.2 l -0.5,0.1 v 0 l -2,0.5 c 0,0 -0.8,0 -0.9,-0.9 v -0.2 c 0,-0.8 -0.6,-2.1 -1.1,-3.1 l -0.4,-0.8 c -0.7,-1.1 -1,-2.1 -1.5,-2.9 l -0.3,-0.6 c -0.4,-0.6 -0.8,-1.1 -0.9,-0.6 -0.1,0.6 0.5,2.4 0.8,3 l 0.1,0.1 c 0.3,0.5 1.1,2.3 1.2,2.8 0.2,0.5 0.9,1.8 1.3,2.2 0.3,0.3 0.8,0.9 0.9,1.4 v 0.1 c 0,0.6 0.7,1.2 1,1.1 0.2,-0.1 0.7,-0.1 1.1,-0.2 l 1,-0.2 c 0.4,0 0.8,0 0.7,0.4 0,0.3 -0.3,0.8 -0.5,1.1 l -0.2,0.3 c -0.3,0.6 -0.6,1.3 -1,1.9 -0.4,0.5 -1.1,1 -1.6,1.4 -0.6,0.3 -0.9,0.3 -1.8,1.2 -0.9,0.9 -1.5,0.8 -2,1.8 l -0.2,0.3 c -0.3,0.7 -0.3,1 -0.4,1.4 -0.1,0.5 0.2,1.1 0.1,2.3 -0.1,1.2 0,1.9 -0.6,2.4 -0.6,0.7 -1.3,0.9 -1.5,0.9 -0.3,0 -1.1,0.6 -1.3,0.8 -0.2,0.1 -0.7,0.2 -0.8,0.6 -0.2,0.3 0.2,1 -0.2,1.6 -0.4,0.5 -1.2,0.6 -1.5,0.7 -0.3,0.2 -0.2,0.8 -0.7,1.3 -0.6,0.5 -1.3,1.7 -2.6,1.8 -1.3,0 -1.7,0.3 -2.9,0.3 -1.2,-0.1 -2,-0.2 -2.1,-0.7 -0.2,-0.5 0.2,-1 0,-1.5 -0.2,-0.5 -1.2,-1.1 -1.4,-2 -0.1,-0.9 0.4,-2.1 0.2,-2.6 -0.1,-0.4 -1.3,-2.1 -1.3,-2.7 0,-0.6 0.5,-1.9 0.9,-2.3 0.4,-0.5 0.8,-0.4 0.8,-1.4 0.1,-0.9 -0.2,-0.6 -0.2,-1.3 l -0.1,-0.5 c 0,-0.9 -0.2,-1.9 -0.5,-2.4 -0.3,-0.6 -1.1,-1.2 -1.3,-2 l 0.6,-0.7 c 0.1,-0.2 0.2,-0.5 0.4,-0.8 0.4,-0.5 0.1,-1.8 -0.6,-1.9 -0.8,0.1 -0.9,0.5 -1.3,0.1 -0.4,-0.4 -0.1,-1 -0.7,-1.4 -0.7,-0.4 -2.7,0.1 -3.2,0.3 -0.5,0.1 -0.8,-0.2 -1.4,-0.3 -0.7,-0.1 -1.2,0.6 -1.7,0.2 -0.6,-0.4 -1.5,-1.6 -1.9,-2.2 -0.4,-0.6 -0.4,-1.8 -0.7,-2.2 -0.2,-0.4 1.1,-2.7 1.5,-3.4 0.3,-0.7 -0.4,-0.9 -0.1,-1.4 0.2,-0.4 1.4,-1.2 1.9,-1.6 l 0.1,-0.2 c 0,0 0.2,-0.3 0.8,-0.8 0.7,-0.4 1.1,-0.4 1.7,-0.7 0.5,-0.3 1,-1 1.2,-1.3 0.3,-0.2 1.2,-0.5 1.7,-0.7 0.5,-0.3 0.7,-0.6 0.8,-0.7 0.1,-0.1 0.7,0.4 1.1,0.4 0.4,0 1.1,-0.3 2,-0.3 0.9,-0.1 1.9,0 2.7,0.1 l 0.6,0.1 c 0.4,0 0.7,0.1 0.8,0.3 0.2,0.3 -0.4,0.7 -0.5,0.9 -0.1,0.3 0,0.4 0.3,0.5 0.2,0.1 0.6,0.1 0.8,0.2 h 0.2 c 0.2,0.1 0.4,0.2 0.6,0.4 v 0.2 c 0.2,0.4 0.7,0.5 0.9,0.5 0.2,0 0.6,0.6 1.1,0.6 0.4,-0.1 0.2,-0.6 0.4,-0.8 l 0.2,-0.2 c 0.2,-0.2 0.5,-0.3 1.2,0.1 l 0.4,0.3 c 0.9,0.4 2.1,1.1 2.4,1.1 h 0.3 c 0.5,0 1.1,0 1.8,0.2 0.8,0.3 1.1,-1.2 1.1,-1.5 v -0.1 c 0,-0.3 0,-0.6 -0.6,-0.6 -0.6,-0.1 -0.5,0.2 -1,0 l -0.2,-0.1 c -0.7,-0.3 -1,-0.2 -1.1,-0.1 -0.1,0 -0.6,-0.1 -0.7,-0.2 -0.2,-0.1 -0.7,-1 -0.7,-1.2 v -0.1 c 0.1,-0.2 0.1,-0.5 -0.3,-0.6 -0.4,0 -0.9,-0.2 -0.9,0 0,0.2 0.1,0.6 0.3,0.8 v 0.1 c 0.2,0.2 -0.1,0.1 -0.3,0.1 -0.2,0 -0.2,0.4 -0.4,0.3 h -0.1 c -0.1,0 -0.2,-0.1 -0.4,-0.3 l -0.1,-0.1 c -0.2,-0.5 -0.7,-0.8 -0.6,-1.3 0,-0.5 0.4,-0.4 -0.2,-0.8 l -0.1,-0.1 c -0.7,-0.47 -0.9,-0.75 -1.4,-1.02 -0.6,-0.27 -0.8,-0.23 -0.8,-0.04 0,0.18 0.2,0.7 0.6,0.96 0.3,0.3 1.2,0.8 1.2,0.9 0,0 -0.4,0 -0.4,0.1 -0.1,0 0.1,0.3 -0.2,0.5 -0.4,0.2 -0.5,0.5 -0.9,0.5 -0.4,0 -1.2,-0.5 -1.1,-0.6 0.2,-0.2 0.7,0 0.9,0 l 0.1,0.1 c 0.2,0 0.5,0 0.6,-0.2 0.1,-0.3 -0.1,-0.6 -0.4,-0.8 h -0.1 c -0.4,-0.2 -1.3,-0.83 -1.3,-1.04 0,-0.22 -0.4,-0.55 -0.7,-0.42 -0.3,0.13 -1,0.4 -1.3,0.18 -0.4,-0.22 -0.8,0.08 -0.9,0.24 0,0.17 -0.5,0.38 -0.9,0.29 -0.4,-0.1 -0.9,0.35 -1,0.55 0,0.2 -0.8,0.5 -1,0.5 -0.3,0.1 -0.9,0.1 -1.3,0.1 -0.4,0.1 -0.4,0.4 -0.6,0.3 -0.1,-0.2 0,-0.4 -0.4,-0.5 h -0.1 c -0.5,0 -0.4,-0.5 -0.2,-0.6 0.3,-0.16 0.7,-0.55 1,-0.75 0.2,-0.2 -0.1,-0.64 0.5,-0.72 0.6,-0.07 2.1,0.35 2.4,0.22 0.3,-0.13 0.8,-0.59 0.8,-0.86 0,-0.27 -0.7,-0.5 -0.5,-0.62 0.1,-0.11 0.8,-0.23 1.2,-0.22 l 0.1,0.01 c 0.4,0.04 0.9,-0.08 0.9,-0.08 l -0.4,-0.13 c -0.1,-0.04 -0.3,-0.08 -0.4,-0.1 -0.2,-0.05 -1,0.05 -1,0.05 V 5.21 c 0.1,-0.13 0.3,-0.49 0.7,-0.52 0.2,-0.03 0.3,-0.1 0.3,-0.19 0.3,-0.02 0.5,-0.04 0.8,-0.05 z" />
  <path
     id="globe-continents-2"
     style="fill:#137b5a;fill-rule:nonzero"
     d="m 79.245,37.65 c -0.3,0.3 -0.4,1.1 -1,1.3 -0.5,0.2 -1.3,0.5 -1.6,0.6 -0.4,0.1 -0.7,0.8 -0.7,1 -0.1,0.1 -0.2,1.3 -0.5,1.5 -0.3,0.2 -0.6,0.3 -0.8,1 -0.1,0.7 -0.2,0.9 0.1,1.1 0.3,0.2 1,0.2 1.2,0 0.2,-0.1 1,-1.4 1.3,-1.8 0.4,-0.4 1.2,-1.4 1.4,-1.8 0.1,-0.3 0.3,-0.9 0.4,-0.9 0.1,0 0.2,0.2 0.4,-0.2 0.1,-0.3 0.1,-1.4 0.1,-1.6 -0.1,-0.1 -0.3,-0.2 -0.3,-0.2" />
</svg>
